[gd_resource type="DynamicFont" load_steps=2 format=2]

[ext_resource path="res://assets/zig.ttf" type="DynamicFontData" id=1]

[resource]
size = 20
outline_color = Color( 0.658824, 0.658824, 0.658824, 1 )
font_data = ExtResource( 1 )
